Project 1- checkpoint 3
…
#gdp_df

democracy_gdp <- democracy_data |>
  mutate(
    female_leader = is_female_monarch == TRUE | is_female_president == TRUE
  ) |>
  left_join(gdp_df, by = c("country_code", "year"))

democracy_gdp

# A tibble: 14,828 × 45
   country_name country_code  year regime_category_index regime_category   
   <chr>        <chr>        <dbl>                 <dbl> <chr>             
 1 Afghanistan  AFG           1950                     5 Royal dictatorship
 2 Afghanistan  AFG           1951                     5 Royal dictatorship
 3 Afghanistan  AFG           1952                     5 Royal dictatorship
 4 Afghanistan  AFG           1953                     5 Royal dictatorship
 5 Afghanistan  AFG           1954                     5 Royal dictatorship
 6 Afghanistan  AFG           1955                     5 Royal dictatorship
 7 Afghanistan  AFG           1956                     5 Royal dictatorship
 8 Afghanistan  AFG           1957                     5 Royal dictatorship
 9 Afghanistan  AFG           1958                     5 Royal dictatorship
10 Afghanistan  AFG           1959                     5 Royal dictatorship
# ℹ 14,818 more rows
# ℹ 40 more variables: is_monarchy <lgl>, is_commonwealth <lgl>,
#   monarch_name <chr>, monarch_accession_year <dbl>, monarch_birthyear <dbl>,
#   is_female_monarch <lgl>, is_democracy <lgl>, is_presidential <lgl>,
#   president_name <chr>, president_accesion_year <dbl>,
#   president_birthyear <dbl>, is_interim_phase <lgl>,
#   is_female_president <lgl>, is_colony <lgl>, colony_of <chr>, …
…
country_codes <- democracy_data |>
  distinct(country_code) |>
  pull(country_code)

unemp_df <- country_codes |>
  map(get_unemployment) |>
  bind_rows()

democracy_unemp <- democracy_data |>
  inner_join(unemp_df, by = c("country_code", "year"))

democracy_unemp

# A tibble: 3,604 × 44
   country_name country_code  year regime_category_index regime_category      
   <chr>        <chr>        <dbl>                 <dbl> <chr>                
 1 Albania      ALB           1980                     4 Military dictatorship
 2 Albania      ALB           1981                     4 Military dictatorship
 3 Albania      ALB           1982                     4 Military dictatorship
 4 Albania      ALB           1983                     4 Military dictatorship
 5 Albania      ALB           1984                     4 Military dictatorship
 6 Albania      ALB           1985                     3 Civilian dictatorship
 7 Albania      ALB           1986                     3 Civilian dictatorship
 8 Albania      ALB           1987                     3 Civilian dictatorship
 9 Albania      ALB           1988                     3 Civilian dictatorship
10 Albania      ALB           1989                     3 Civilian dictatorship
# ℹ 3,594 more rows
# ℹ 39 more variables: is_monarchy <lgl>, is_commonwealth <lgl>,
#   monarch_name <chr>, monarch_accession_year <dbl>, monarch_birthyear <dbl>,
#   is_female_monarch <lgl>, is_democracy <lgl>, is_presidential <lgl>,
#   president_name <chr>, president_accesion_year <dbl>,
#   president_birthyear <dbl>, is_interim_phase <lgl>,
#   is_female_president <lgl>, is_colony <lgl>, colony_of <chr>, …
…
